…
    vetor_permanente_media_soma_populacao

    ## [1] 6328339

Agora que adquirimos uma compreensão do operador *pipe*, estamos prontos para começar a analisar e manipular alguns dados. Ao longo da lição vamos continuar trabalhando com o *dataset* dados_gapminder:

    # Certifique-se de que o pacote "dados" está instalado e carregado aantes de proceder conforme abaixo

    dados_gapminder

    ## # A tibble: 1,704 x 6
    ##    pais        continente   ano expectativa_de_vida populacao pib_per_capita
    ##    <fct>       <fct>      <int>               <dbl>     <int>          <dbl>
    ##  1 Afeganistão Ásia        1952                28.8   8425333           779.
    ##  2 Afeganistão Ásia        1957                30.3   9240934           821.
    ##  3 Afeganistão Ásia        1962                32.0  10267083           853.
    ##  4 Afeganistão Ásia        1967                34.0  11537966           836.
    ##  5 Afeganistão Ásia        1972                36.1  13079460           740.
    ##  6 Afeganistão Ásia        1977                38.4  14880372           786.
    ##  7 Afeganistão Ásia        1982                39.9  12881816           978.
    ##  8 Afeganistão Ásia        1987                40.8  13867957           852.
    ##  9 Afeganistão Ásia        1992                41.7  16317921           649.
    ## 10 Afeganistão Ásia        1997                41.8  22227415           635.
    ## # … with 1,694 more rows
Como pode observar, este *dataset* contém o nome do país, seu continente e o ano de registro, além dos indicadores de expectativa de vida, total da população e PIB *per capita*, em determinados anos. Conforme mencionamos acima, antes de analisar os dados é importante verificar se estes estão bem ordenados no formato *tidy*. Relembrando os três critérios discutidos, podemos dizer que sim, o *dataset* encontra-se organizado e pronto para ser trabalhado com o pacote dplyr.  

## O que é dplyr?
[Dplyr](https://cran.r-project.org/web/packages/dplyr/vignettes/dplyr.html) (em inglês) também é parte do tidyverse, fornecendo funções para manipulação e transformação dos dados. Porque estamos mantendo nossos dados bem organizados, precisaremos apenas de um pequeno conjunto de ferramentas para explorá-los. Em comparação com o pacote básico do R, usando o dplyr em nosso código, fica geralmente mais rápido e há a garantia de que os dados resultantes (*output*) estarão bem ordenados uma vez que os dados de entrada (*input*) também estarão. Talvez o mais importante seja que o dplyr torna o nosso código mais fácil de ser lido e utiliza "verbos" que são, na maioria das vezes, intuitivos. Cada função do dplyr corresponde a um desses verbos, sendo cinco principais: filtrar (`filter`), selecionar (`select`), ordenar (`arrange`), modificar (`mutate`) e sumarizar (`summarise`). Vamos observar individualmente como cada uma dessas funções funciona na prática.

### Selecionar (select)

Se olharmos para o *dataset* dados_gapminder, vamos observar a presença de seis colunas, cada uma contendo diferentes informações. Podemos escolher, para a nossa análise, visualizar apenas algumas dessas colunas. A função `select()` do dplyr nos permite fazer isso. O primeiro argumento da função é o *data frame* que desejamos manipular e os seguintes são os nomes das colunas que queremos manter:

    # Remove as colunas de dados_gapminder usando select()
    # Note que não é necessário acrescentar o nome da coluna com o símbolo $ (dólar) ao final de dados_gapminder visto que o dplyr automaticamente assume que "," (vírgula) representa E (AND em inglês)

    select(dados_gapminder, pais, ano, expectativa_de_vida)

    ## # A tibble: 1,704 x 3
    ##    pais          ano expectativa_de_vida
    ##    <fct>       <int>               <dbl>
    ##  1 Afeganistão  1952                28.8
    ##  2 Afeganistão  1957                30.3
    ##  3 Afeganistão  1962                32.0
    ##  4 Afeganistão  1967                34.0
    ##  5 Afeganistão  1972                36.1
    ##  6 Afeganistão  1977                38.4
    ##  7 Afeganistão  1982                39.9
    ##  8 Afeganistão  1987                40.8
    ##  9 Afeganistão  1992                41.7
    ## 10 Afeganistão  1997                41.8
    ## # … with 1,694 more rows

Vejamos como escrever o mesmo código utilizando o operador *pipe* `%>%`:

    dados_gapminder %>%
      select(pais, ano, expectativa_de_vida)

    ## # A tibble: 1,704 x 3
    ##    pais          ano expectativa_de_vida
    ##    <fct>       <int>               <dbl>
    ##  1 Afeganistão  1952                28.8
    ##  2 Afeganistão  1957                30.3
    ##  3 Afeganistão  1962                32.0
    ##  4 Afeganistão  1967                34.0
    ##  5 Afeganistão  1972                36.1
    ##  6 Afeganistão  1977                38.4
    ##  7 Afeganistão  1982                39.9
    ##  8 Afeganistão  1987                40.8
    ##  9 Afeganistão  1992                41.7
    ## 10 Afeganistão  1997                41.8
    ## # … with 1,694 more rows

Fazer referência a cada uma das colunas que desejamos manter apenas para nos livrar de uma é um tanto tedioso. Podemos usar o símbolo de menos (-) para demonstrar que queremos remover uma coluna.

    dados_gapminder %>%
        select(-continente)

    ## # A tibble: 1,704 x 5
    ##    pais          ano expectativa_de_vida populacao pib_per_capita
    ##    <fct>       <int>               <dbl>     <int>          <dbl>
    ##  1 Afeganistão  1952                28.8   8425333           779.
    ##  2 Afeganistão  1957                30.3   9240934           821.
    ##  3 Afeganistão  1962                32.0  10267083           853.
    ##  4 Afeganistão  1967                34.0  11537966           836.
    ##  5 Afeganistão  1972                36.1  13079460           740.
    ##  6 Afeganistão  1977                38.4  14880372           786.
    ##  7 Afeganistão  1982                39.9  12881816           978.
    ##  8 Afeganistão  1987                40.8  13867957           852.
    ##  9 Afeganistão  1992                41.7  16317921           649.
    ## 10 Afeganistão  1997                41.8  22227415           635.
    ## # … with 1,694 more rows

### Filtrar (filter)

A função `filter()` faz o mesmo que a função select, mas ao invés de escolher o nome da coluna, podemos usá-lo para filtrar linhas usando um teste de requisito. Por exemplo, se quisermos selecionar somente os registros dos países em 2007:

    dados_gapminder %>%
        filter(ano == 2007)

    ## # A tibble: 142 x 6
    ##    pais        continente   ano expectativa_de_vida populacao pib_per_capita
    ##    <fct>       <fct>      <int>               <dbl>     <int>          <dbl>
    ##  1 Afeganistão Ásia        2007                43.8  31889923           975.
    ##  2 Albânia     Europa      2007                76.4   3600523          5937.
    ##  3 Argélia     África      2007                72.3  33333216          6223.
    ##  4 Angola      África      2007                42.7  12420476          4797.
    ##  5 Argentina   Américas    2007                75.3  40301927         12779.
    ##  6 Austrália   Oceania     2007                81.2  20434176         34435.
    ##  7 Áustria     Europa      2007                79.8   8199783         36126.
    ##  8 Bahrein     Ásia        2007                75.6    708573         29796.
    ##  9 Bangladesh  Ásia        2007                64.1 150448339          1391.
    ## 10 Bélgica     Europa      2007                79.4  10392226         33693.
    ## # … with 132 more rows

### Modificar (mutate)

A função `mutate()` permite adicionar uma coluna ao seu *dataset*. No momento, temos país e continente em duas colunas separadas. Podemos utilizar a função `paste()` para combinar as duas informações e especificar um separador. Vamos colocá-las em uma única coluna chamada "localizacao".

    dados_gapminder %>%
      mutate(localizacao = paste(pais, continente, sep = ", "))

    ## # A tibble: 1,704 x 7
    ## pais        continente   ano expectativa_de_vida populacao pib_per_capita localizacao      
    ## <fct>       <fct>      <int>               <dbl>     <int>          <dbl> <chr>            
    ## 1 Afeganistão Ásia        1952                28.8   8425333           779. Afeganistão, Ásia
    ## 2 Afeganistão Ásia        1957                30.3   9240934           821. Afeganistão, Ásia
    ## 3 Afeganistão Ásia        1962                32.0  10267083           853. Afeganistão, Ásia
    ## 4 Afeganistão Ásia        1967                34.0  11537966           836. Afeganistão, Ásia
    ## 5 Afeganistão Ásia        1972                36.1  13079460           740. Afeganistão, Ásia
    ## 6 Afeganistão Ásia        1977                38.4  14880372           786. Afeganistão, Ásia
    ## 7 Afeganistão Ásia        1982                39.9  12881816           978. Afeganistão, Ásia
    ## 8 Afeganistão Ásia        1987                40.8  13867957           852. Afeganistão, Ásia
    ## 9 Afeganistão Ásia        1992                41.7  16317921           649. Afeganistão, Ásia
    ## 10 Afeganistão Ásia        1997                41.8  22227415           635. Afeganistão, Ásia
    ## # … with 1,694 more rows

Novamente, é preciso lembrar que o dplyr não salva os dados, nem transforma o original. Em vez disso, ele cria um *data frame* temporário em cada etapa. Se deseja manter os dados, é necessário criar uma variável permanente.

    dados_gapminder_localizacao <- dados_gapminder %>%
      mutate(localizacao = paste(pais, continente, sep = ", "))

    # Visualiza a nova tabela criada com a localização adicionada

    dados_gapminder_localizacao

    ## # A tibble: 1,704 x 7
    ## pais        continente   ano expectativa_de_vida populacao pib_per_capita localizacao      
    ## <fct>       <fct>      <int>               <dbl>     <int>          <dbl> <chr>            
    ## 1 Afeganistão Ásia        1952                28.8   8425333           779. Afeganistão, Ásia
    ## 2 Afeganistão Ásia        1957                30.3   9240934           821. Afeganistão, Ásia
    ## 3 Afeganistão Ásia        1962                32.0  10267083           853. Afeganistão, Ásia
    ## 4 Afeganistão Ásia        1967                34.0  11537966           836. Afeganistão, Ásia
    ## 5 Afeganistão Ásia        1972                36.1  13079460           740. Afeganistão, Ásia
    ## 6 Afeganistão Ásia        1977                38.4  14880372           786. Afeganistão, Ásia
    ## 7 Afeganistão Ásia        1982                39.9  12881816           978. Afeganistão, Ásia
    ## 8 Afeganistão Ásia        1987                40.8  13867957           852. Afeganistão, Ásia
    ## 9 Afeganistão Ásia        1992                41.7  16317921           649. Afeganistão, Ásia
    ## 10 Afeganistão Ásia        1997                41.8  22227415           635. Afeganistão, Ásia
    ## # … with 1,694 more rows

### Ordenar (arrange)

A função `arrange()` nos permite ordenar as colunas de novas formas. Atualmente, o nosso conjunto de dados está organizado em ordem alfabética pelo nome do país. Vamos ordená-lo em ordem decrescente de acordo com o total da população.

    dados_gapminder %>%
      arrange(desc(populacao))

    ## # A tibble: 1,704 x 6
    ##    pais  continente   ano expectativa_de_vida  populacao pib_per_capita
    ##    <fct> <fct>      <int>               <dbl>      <int>          <dbl>
    ##  1 China Ásia        2007                73.0 1318683096          4959.
    ##  2 China Ásia        2002                72.0 1280400000          3119.
    ##  3 China Ásia        1997                70.4 1230075000          2289.
    ##  4 China Ásia        1992                68.7 1164970000          1656.
    ##  5 Índia Ásia        2007                64.7 1110396331          2452.
    ##  6 China Ásia        1987                67.3 1084035000          1379.
    ##  7 Índia Ásia        2002                62.9 1034172547          1747.
    ##  8 China Ásia        1982                65.5 1000281000           962.
    ##  9 Índia Ásia        1997                61.8  959000000          1459.
    ## 10 China Ásia        1977                64.0  943455000           741.
    ## # … with 1,694 more rows
…
