…
```{r}

tabela <- table(palavras[[1]])

tabela <- data_frame(palavra = names(tabela), contagem = as.numeric(tabela))

tabela

```

O resultado deste comando deve aparecer assim no seu console (*tibble* é um tipo específico de _data frame_ criado no pacote [Tidy Data](https://en.wikipedia.org/wiki/Tidy_data)):
  
```

# A tibble: 77 x 2

palavra contagem

<chr> <dbl>

1 a 4.

2 ambos 1.

3 ano 3.

4 ao 1.

5 aprecio 1.

6 aprovar 1.

7 as 2.

8 às 1.

9 assim 1.

10 assistência 1.

# ... with 67 more rows
…
```{r}

arrange(tabela, desc(contagem))

```

 
E agora o resultado será:

  

```{r}

# A tibble: 77 x 2

palavra contagem

<chr> <dbl>

1 que 5.

2 a  4.

3 ano 3.

4 e  3.

5 os 3.

6 as 2.

7 da 2.

8 de 2.

9 este 2.

10 o 2.

# … with 67 more rows
…
