…
# Cargar el paquete historydata
library(historydata)
```

Este paquete contiene ejemplos de conjuntos de datos históricos - el ejemplo anterior con datos del censo del EEUU fue tomado de este paquete (y modificado por la traductora). A lo largo de este tutorial, vamos a trabajar con el conjunto de `early_colleges` (primeras_universidades) que contiene datos sobre las universidades fundadas antes de 1848.[^4] Lo primero que vamos a hacer es cargar los datos y leerlos:

```
# Asegúrate de que has instalado y cargado el paquete historydata antes de nada

data(early_colleges)
early_colleges

# A tibble: 65 x 6
   college                original_name         city          state established sponsorship
   <chr>                  <chr>                 <chr>         <chr>       <int> <chr>
 1 Harvard                NA                    Cambridge     MA           1636 Congregational; after 1805 …
 2 William and Mary       NA                    Williamsburg  VA           1693 Anglican
 3 Yale                   NA                    New Haven     CT           1701 Congregational
 4 Pennsylvania, Univ. of NA                    Philadelphia  PA           1740 Nondenominational
 5 Princeton              College of New Jersey Princeton     NJ           1746 Presbyterian
 6 Columbia               King's College        New York      NY           1754 Anglican
 7 Brown                  NA                    Providence    RI           1765 Baptist
 8 Rutgers                Queen's College       New Brunswick NJ           1766 Dutch Reformed
 9 Dartmouth              NA                    Hanover       NH           1769 Congregational
10 Charleston, Coll. Of   NA                    Charleston    SC           1770 Anglican
# ... with 55 more rows
```
Como puedes ver, este conjunto de datos contiene el nombre actual de la universidad (*original_name*), la ciudad (*city*) y el estado (*state*) en que fue fundada, la fecha en que se fundó (*established*), y la entidad responsable de su patrocinio (*sponsorship*). Como ya hemos dicho, antes de poder trabajar con un conjunto de datos, es importante pensar en cómo organizar los datos. Veamos si alguno de estos datos no está en formato "limpio" (*"tidy"*). ¿Puedes ver alguna celda que no concuerde con los tres criterio de datos limpios?

Si piensas que se trata deel patrocinio de Harvard, estás en lo cierto. Además de señalar el patrocinio original, también menciona que cambió de patrocinador en 1805. Normalmente uno quiere mantener toda la información posible sobre los datos, pero para propósitos de este tutorial, vamos a cambiar la columna para tener solo el patrocinador inicial.

```
early_colleges[1,6] <- "Congregational"
early_colleges

# A tibble: 65 x 6
   college                original_name         city          state established sponsorship
   <chr>                  <chr>                 <chr>         <chr>       <int> <chr>
 1 Harvard                NA                    Cambridge     MA           1636 Congregational
 2 William and Mary       NA                    Williamsburg  VA           1693 Anglican
 3 Yale                   NA                    New Haven     CT           1701 Congregational
 4 Pennsylvania, Univ. of NA                    Philadelphia  PA           1740 Nondenominational
 5 Princeton              College of New Jersey Princeton     NJ           1746 Presbyterian
 6 Columbia               King's College        New York      NY           1754 Anglican
 7 Brown                  NA                    Providence    RI           1765 Baptist
 8 Rutgers                Queen's College       New Brunswick NJ           1766 Dutch Reformed
 9 Dartmouth              NA                    Hanover       NH           1769 Congregational
10 Charleston, Coll. Of   NA                    Charleston    SC           1770 Anglican
# ... with 55 more rows
```
…
### ```select``` (seleccionar)
Si miramos el conjunto `early_colleges` (primeras_universidades), podemos ver que hay muchos "NA" en la columna de nombres originales. NA significa que los datos no están disponibles (del inglés *not available*), y quizás queramos ver nuestros datos sin esta columna. La función ```select()``` de `dplyr` nos posibilita esto precisamente. Toma el marco de datos que quieres manipular como el primer argumento, seguido de la lista indicando qué columnas queremos mantener:

```
# Deshazte de la columna de nombres originales ("original_name") usando select()
# Nota que no tienes que añadir el símbolo $ (dólar) al nombre de la columna al final de early_colleges porque `dplyr` asume que "," (una coma) representa Y (AND en inglés) automáticamente

select(early_colleges, college, city, state, established, sponsorship)

# A tibble: 65 x 5
   college                city          state established sponsorship
   <chr>                  <chr>         <chr>       <int> <chr>
 1 Harvard                Cambridge     MA           1636 Congregational
 2 William and Mary       Williamsburg  VA           1693 Anglican
 3 Yale                   New Haven     CT           1701 Congregational
 4 Pennsylvania, Univ. of Philadelphia  PA           1740 Nondenominational
 5 Princeton              Princeton     NJ           1746 Presbyterian
 6 Columbia               New York      NY           1754 Anglican
 7 Brown                  Providence    RI           1765 Baptist
 8 Rutgers                New Brunswick NJ           1766 Dutch Reformed
 9 Dartmouth              Hanover       NH           1769 Congregational
10 Charleston, Coll. Of   Charleston    SC           1770 Anglican
# ... with 55 more rows
 ```

Escribamos también esto mismo usando la línea de operador `%>%`:

```
early_colleges%>%
    select(college, city, state, established, sponsorship)

# A tibble: 65 x 5
   college                city          state established sponsorship
   <chr>                  <chr>         <chr>       <int> <chr>
 1 Harvard                Cambridge     MA           1636 Congregational
 2 William and Mary       Williamsburg  VA           1693 Anglican
 3 Yale                   New Haven     CT           1701 Congregational
 4 Pennsylvania, Univ. of Philadelphia  PA           1740 Nondenominational
 5 Princeton              Princeton     NJ           1746 Presbyterian
 6 Columbia               New York      NY           1754 Anglican
 7 Brown                  Providence    RI           1765 Baptist
 8 Rutgers                New Brunswick NJ           1766 Dutch Reformed
 9 Dartmouth              Hanover       NH           1769 Congregational
10 Charleston, Coll. Of   Charleston    SC           1770 Anglican
# ... with 55 more rows
```

Hacer referencia a cada una de las columnas que queremos mantener para deshacernos de una es un tanto tedioso. Podemos usar el símbolo de restar (-) para indicar que queremos descartar una columna, con su nombre.

```
early_colleges%>%
    select(-original_name)

    # A tibble: 65 x 5
       college                city          state established sponsorship
       <chr>                  <chr>         <chr>       <int> <chr>
     1 Harvard                Cambridge     MA           1636 Congregational
     2 William and Mary       Williamsburg  VA           1693 Anglican
     3 Yale                   New Haven     CT           1701 Congregational
     4 Pennsylvania, Univ. of Philadelphia  PA           1740 Nondenominational
     5 Princeton              Princeton     NJ           1746 Presbyterian
     6 Columbia               New York      NY           1754 Anglican
     7 Brown                  Providence    RI           1765 Baptist
     8 Rutgers                New Brunswick NJ           1766 Dutch Reformed
     9 Dartmouth              Hanover       NH           1769 Congregational
    10 Charleston, Coll. Of   Charleston    SC           1770 Anglican
    # ... with 55 more rows
```
…
### ```mutate``` (mutar)

El comando ```mutate``` nos permite añadir una columna al conjunto de datos. Ahora mismo, tenemos la ciudad y el estado en dos columnas diferentes. Podemos usar el comando de pegar (```paste```) para combinar dos cadenas de caracteres y especificar un separador. Pongámoslas en una única columna llamada "location" (lugar):

```
early_colleges%>%mutate(location=paste(city,state,sep=","))

# A tibble: 65 x 7
   college                original_name         city          state established sponsorship       location
   <chr>                  <chr>                 <chr>         <chr>       <int> <chr>             <chr>
 1 Harvard                NA                    Cambridge     MA           1636 Congregational    Cambridge,MA
 2 William and Mary       NA                    Williamsburg  VA           1693 Anglican          Williamsburg,VA
 3 Yale                   NA                    New Haven     CT           1701 Congregational    New Haven,CT
 4 Pennsylvania, Univ. of NA                    Philadelphia  PA           1740 Nondenominational Philadelphia,PA
 5 Princeton              College of New Jersey Princeton     NJ           1746 Presbyterian      Princeton,NJ
 6 Columbia               King's College        New York      NY           1754 Anglican          New York,NY
 7 Brown                  NA                    Providence    RI           1765 Baptist           Providence,RI
 8 Rutgers                Queen's College       New Brunswick NJ           1766 Dutch Reformed    New Brunswick,NJ
 9 Dartmouth              NA                    Hanover       NH           1769 Congregational    Hanover,NH
10 Charleston, Coll. Of   NA                    Charleston    SC           1770 Anglican          Charleston,SC
# ... with 55 more rows
```

Recuerda que `dplyr` no guarda los datos ni manipula el original. Al contrario, crea marcos de datos temporales en cada paso. Si quieres guardarlos, tienes que crear una variable permanente con ```<-```:

```
primeras_universidades_con_localizacion <- early_colleges%>%
  mutate(location=paste(city, state, sep=","))

# Observa la nueva tabla con la localización añadida
primeras_universidades_con_localizacion

# A tibble: 65 x 7
   college                original_name         city          state established sponsorship       location
   <chr>                  <chr>                 <chr>         <chr>       <int> <chr>             <chr>
 1 Harvard                NA                    Cambridge     MA           1636 Congregational    Cambridge,MA
 2 William and Mary       NA                    Williamsburg  VA           1693 Anglican          Williamsburg,VA
 3 Yale                   NA                    New Haven     CT           1701 Congregational    New Haven,CT
 4 Pennsylvania, Univ. of NA                    Philadelphia  PA           1740 Nondenominational Philadelphia,PA
 5 Princeton              College of New Jersey Princeton     NJ           1746 Presbyterian      Princeton,NJ
 6 Columbia               King's College        New York      NY           1754 Anglican          New York,NY
 7 Brown                  NA                    Providence    RI           1765 Baptist           Providence,RI
 8 Rutgers                Queen's College       New Brunswick NJ           1766 Dutch Reformed    New Brunswick,NJ
 9 Dartmouth              NA                    Hanover       NH           1769 Congregational    Hanover,NH
10 Charleston, Coll. Of   NA                    Charleston    SC           1770 Anglican          Charleston,SC
# ... with 55 more rows
```

### ```arrange```(ordenar)

La función ```arrange``` nos permite ordenar nuestras columnas de una nueva forma. Ahora mismo, las universidades están organizadas por año en orden ascendiente. Pongámoslas en el orden descendiente de fundación desde, en este caso, el fin de la guerra con México en 1848.[^5]

```
early_colleges %>%
   arrange(desc(established))

# A tibble: 65 x 6
   college               original_name city        state established sponsorship
   <chr>                 <chr>         <chr>       <chr>       <int> <chr>
 1 Wisconsin, Univ. of   NA            Madison     WI           1848 Secular
 2 Earlham               NA            Richmond    IN           1847 Quaker
 3 Beloit                NA            Beloit      WI           1846 Congregational
 4 Bucknell              NA            Lewisburg   PA           1846 Baptist
 5 Grinnell              NA            Grinnell    IA           1846 Congregational
 6 Mount Union           NA            Alliance    OH           1846 Methodist
 7 Louisiana, Univ. of   NA            New Orleans LA           1845 Secular
 8 U.S. Naval Academy    NA            Annapolis   MD           1845 Secular
 9 Mississipps, Univ. of NA            Oxford      MI           1844 Secular
10 Holy Cross            NA            Worchester  MA           1843 Roman Catholic
# ... with 55 more rows
```
…
