…
El resultado es `101`, lo cual indica que hay 101 palabras en nuestro párrafo.

La separación del documento en palabras individuales hace posible calcular cuántas veces se utilizó cada palabra en el texto. Para hacer esto, primero aplicamos la función `table`(tabla) a las palabras en el primer (y aquí, único) documento y después separamos los nombres y los valores de la tabla en un único objeto llamado marco de datos (*data frame*). Los marcos de datos en R son utilizados de manera similar a como se utiliza una tabla en una base de datos. Estos pasos, junto con la impresión de los resultados, son conseguidos con las siguientes líneas de código:

```{r}
tabla <- table(palabras[[1]])
tabla <- data_frame(palabra = names(tabla), recuento = as.numeric(tabla))
tabla
```

El resultado de este comando debería parecerse a este en tu consola (una *tibble* es una variedad específica de marco de datos creado bajo el enfoque [Tidy Data](https://en.wikipedia.org/wiki/Tidy_data)):

```
   # A tibble: 70 x 2
   palabra   recuento
   <chr>        <dbl>
 1 a               4.
 2 adicción        1.
 3 adoptaron       1.
 4 año             3.
 5 aprecio         1.
 6 aprobar         1.
 7 así             2.
 8 aún             1.
 9 ayudar          1.
10 bajas           1.
# ... with 60 more rows
```

Hay una gran cantidad de información en esta muestra. Vemos que hay 70 palabras únicas, como indica la dimensión de la tabla. Se imprimen las 10 primeras filas del conjunto de datos con la segunda columna indicando el número de veces que la palabra de la primera columna ha sido usada. Por ejemplo, "a" se usó 4 veces pero "ayudar" solo se usó una vez.

También podemos ordenar la tabla usando la función `arrange`(organizar). Esta función toma el conjunto de datos sobre el que trabajar, aquí `tabla`, y después el nombre de la columna que toma como referencia para ordenarlo. La función `desc` en el segundo argumento indica que queremos clasificar en orden descendiente.

```{r}
arrange(tabla, desc(recuento))
```

Y el resultado ahora será:

```{r}
# A tibble: 70 x 2
   palabra recuento
   <chr>      <dbl>
 1 de            7.
 2 que           6.
 3 la            5.
 4 a             4.
 5 año           3.
 6 los           3.
 7 para          3.
 8 y             3.
 9 así           2.
10 como          2.
# ... with 60 more rows
```
…
